{
  "images": [
    {
      "id": 7555620,
      "name": "Nifty New Snapshot",
      "distribution": "Ubuntu",
      "slug": null,
      "public": false,
      "regions": [
        "nyc2",
        "nyc2"
      ],
      "created_at": "2014-11-04T22:23:02Z",
      "type": "snapshot",
      "min_disk_size": 20,
      "size_gigabytes": 2.34
    }
  ],
  "links": {
    "pages": {
      "last": "https://api.digitalocean.com/v2/images?page=56&per_page=1",
      "next": "https://api.digitalocean.com/v2/images?page=2&per_page=1"
    }
  },
  "meta": {
    "total": 56
  }
}